﻿"Dia";"19h";"4h"
"2020-01-02 00:00:00";65,94;51,26
"2020-01-03 00:00:00";66,19;52,51
"2020-01-04 00:00:00";65,31;53,78
"2020-01-05 00:00:00";65,17;53,74
"2020-01-06 00:00:00";64,3;52,64
"2020-01-09 00:00:00";65,07;52,39
"2020-01-10 00:00:00";65,55;51,72
"2020-01-11 00:00:00";65,02;55,1
"2020-01-12 00:00:00";63,43;53,89
"2020-01-13 00:00:00";64,56;50,39
"2020-01-14 00:00:00";65,02;51,15
"2020-01-15 00:00:00";64,89;51,22
"2020-01-16 00:00:00";65,54;51,43
"2020-01-17 00:00:00";65,02;52,47
"2020-01-18 00:00:00";65,04;53,83
"2020-01-19 00:00:00";62,11;54,83
"2020-01-20 00:00:00";64,78;54,55
"2020-01-21 00:00:00";65,48;59,21
"2020-01-22 00:00:00";63,59;53,07
"2020-01-23 00:00:00";65,37;59,06
"2020-01-24 00:00:00";65,77;53,34
"2020-01-25 00:00:00";65,61;54,61
"2020-01-26 00:00:00";63,63;55,49
"2020-01-27 00:00:00";64,59;50,83
"2020-01-28 00:00:00";64,85;50,6
"2020-01-29 00:00:00";65,67;51,27
"2020-01-30 00:00:00";65,08;52,32
"2020-01-31 00:00:00";65,48;52,39
"2020-02-01 00:00:00";65,2;55,79
"2020-02-02 00:00:00";64,1;54,73
"2020-02-03 00:00:00";64,84;50,51
"2020-02-04 00:00:00";65,15;52,12
"2020-02-05 00:00:00";64,96;50,18
"2020-02-06 00:00:00";65,36;51,74
"2020-02-07 00:00:00";65,38;52,23
"2020-02-08 00:00:00";64,95;53,86
"2020-02-09 00:00:00";63,69;54,47
"2020-02-10 00:00:00";64,98;50,14
"2020-02-11 00:00:00";65,36;50,23
"2020-02-12 00:00:00";64,93;50,55
"2020-03-11 00:00:00";65,96;50,97
"2020-03-12 00:00:00";66,29;51,55
"2020-03-13 00:00:00";64,96;51,4
"2020-03-14 00:00:00";60,53;50,69
"2020-03-15 00:00:00";57,92;47,49
"2020-03-16 00:00:00";60,32;47,86
"2020-03-17 00:00:00";58,76;49,82
"2020-03-18 00:00:00";58,25;47,89
"2020-03-19 00:00:00";57,84;46,66
"2020-03-20 00:00:00";57,61;46,26
"2020-03-21 00:00:00";55,2;45,44
"2020-03-22 00:00:00";54,41;43,71
"2020-03-23 00:00:00";57,12;47,39
"2020-03-24 00:00:00";56,65;47,93
"2020-03-25 00:00:00";56,35;45,8
"2020-03-26 00:00:00";56,19;45,73
"2020-03-27 00:00:00";55,95;45,61
"2020-03-28 00:00:00";54,81;44,37
"2020-03-29 00:00:00";53,72;43,69
"2020-03-30 00:00:00";56,68;47,53
"2020-03-31 00:00:00";57,29;46,14
"2020-04-01 00:00:00";61,2;48,01
"2020-04-02 00:00:00";56,69;46,67
"2020-04-03 00:00:00";56,4;44,74
"2020-04-04 00:00:00";55,1;43,95
"2020-04-05 00:00:00";53,89;42,62
"2020-04-06 00:00:00";56,37;43,54
"2020-04-07 00:00:00";55,74;44,67
"2020-04-08 00:00:00";56,75;43,71
"2020-04-09 00:00:00";57,24;44,18
"2020-04-10 00:00:00";55,16;42,22
"2020-04-11 00:00:00";55,52;43,8
"2020-04-12 00:00:00";54,86;42,23
"2020-04-13 00:00:00";54,7;42,69
"2020-04-14 00:00:00";57,69;44,78
"2020-04-15 00:00:00";57,77;44,6
"2020-04-16 00:00:00";57,74;44,67
"2020-04-17 00:00:00";57,8;44,41
"2020-04-18 00:00:00";56,72;43,71
"2020-04-19 00:00:00";56,07;47,37
"2020-04-20 00:00:00";58,55;47,32
"2020-04-21 00:00:00";62,72;50,74
"2020-04-22 00:00:00";57,9;49,7
"2020-04-23 00:00:00";57,29;44,43
"2020-04-24 00:00:00";57,64;44,31
"2020-04-25 00:00:00";56,73;44,21
"2020-04-26 00:00:00";56,78;42,68
"2020-04-27 00:00:00";59,51;44,08
"2020-04-28 00:00:00";59,26;45,81
"2020-04-29 00:00:00";59,9;44,21
"2020-04-30 00:00:00";59,99;44,59
"2020-05-01 00:00:00";58,15;42,61
"2020-05-02 00:00:00";58,6;43,26
"2020-05-03 00:00:00";58,21;42,37
"2020-05-04 00:00:00";60,14;44,47
"2020-05-05 00:00:00";60,27;44,7
"2020-05-06 00:00:00";60,74;45,54
"2020-05-07 00:00:00";60,49;45,46
"2020-05-08 00:00:00";60,61;45,34
"2020-05-09 00:00:00";59,38;44,41
"2020-05-10 00:00:00";57,91;43,35
"2020-05-11 00:00:00";60,45;45,21
"2020-05-12 00:00:00";61,23;46,08
"2020-05-13 00:00:00";61,85;45,86
"2020-05-14 00:00:00";60,6;45,79
"2020-05-15 00:00:00";61,58;46,17
"2020-05-16 00:00:00";58,95;45,1
"2020-05-17 00:00:00";59,3;44,42
"2020-05-18 00:00:00";62,13;45,19
"2020-05-19 00:00:00";62,09;45,04
"2020-05-20 00:00:00";62,32;45,43
"2020-05-21 00:00:00";61,93;45,22
"2020-05-22 00:00:00";62,04;45,91
"2020-05-23 00:00:00";61,51;45,21
"2020-05-24 00:00:00";60,37;44,79
"2020-05-25 00:00:00";64,81;44,97
"2020-05-26 00:00:00";63,9;46,81
"2020-05-27 00:00:00";64,55;46,52
"2020-05-28 00:00:00";64,5;46,12
"2020-05-29 00:00:00";65,91;46,73
"2020-05-30 00:00:00";64,57;47,86
"2020-05-31 00:00:00";63,45;47,15
"2020-06-01 00:00:00";63,39;45,25
"2020-06-02 00:00:00";64,87;46,89
"2020-06-03 00:00:00";64,16;47,1
"2020-06-04 00:00:00";65,93;48,62
"2020-06-05 00:00:00";66,15;47,59
"2020-06-06 00:00:00";64,79;48,69
"2020-06-07 00:00:00";63,06;47,88
"2020-06-08 00:00:00";64,5;46,71
"2020-06-12 00:00:00";65,11;47,69
"2020-06-13 00:00:00";63,34;49,51
"2020-06-14 00:00:00";63,19;48,75
"2020-06-15 00:00:00";64,84;46,65
"2020-06-16 00:00:00";64,38;50,55
"2020-06-17 00:00:00";65,56;47,41
"2020-06-18 00:00:00";65,53;47,47
"2020-06-19 00:00:00";65,54;47,98
"2020-06-20 00:00:00";64,93;52,18
"2020-06-21 00:00:00";63,94;51,41
"2020-06-22 00:00:00";64,92;47,76
"2020-06-23 00:00:00";65,98;47,86
"2020-06-24 00:00:00";63,68;59,62
"2020-06-25 00:00:00";64,73;48,66
"2020-06-26 00:00:00";65,16;48,94
"2020-06-27 00:00:00";63,63;52,16
"2020-06-28 00:00:00";63,14;52,34
"2020-06-29 00:00:00";65,29;48,75
"2020-06-30 00:00:00";66,18;49,21
"2020-07-01 00:00:00";65,83;50,32
"2020-07-02 00:00:00";66,08;50,16
"2020-07-03 00:00:00";66,36;51,05
"2020-07-04 00:00:00";64,32;54,15
"2020-07-05 00:00:00";63,35;53,3
"2020-07-06 00:00:00";65,38;49,14
"2020-07-07 00:00:00";66,01;50,49
"2020-07-08 00:00:00";65,66;50,75
"2020-07-09 00:00:00";65,29;50,2
"2020-07-10 00:00:00";64,94;50,61
"2020-07-11 00:00:00";64,37;53,54
"2020-07-12 00:00:00";63,66;53,17
"2020-07-13 00:00:00";64,37;49,22
"2020-07-14 00:00:00";65,53;49,91
"2020-07-15 00:00:00";65,12;49,77
"2020-07-16 00:00:00";65,53;63,39
"2020-07-17 00:00:00";64,76;50,88
"2020-07-18 00:00:00";63,53;53,05
"2020-07-19 00:00:00";62,76;51,62
"2020-07-20 00:00:00";64,23;48,85
"2020-07-21 00:00:00";65,2;48,95
"2020-07-22 00:00:00";65,18;49,74
"2020-07-23 00:00:00";65,41;49,61
"2020-07-24 00:00:00";64,79;50,17
"2020-07-25 00:00:00";63,13;51,16
"2020-07-26 00:00:00";63,37;50,44
"2020-07-27 00:00:00";64,83;48,83
"2020-07-28 00:00:00";64,6;49,53
"2020-07-29 00:00:00";63,23;49,32
"2020-07-30 00:00:00";63,84;48,85
"2020-07-31 00:00:00";63,63;48,85
"2020-08-01 00:00:00";61,66;51,06
"2020-08-02 00:00:00";61,64;50,8
"2020-08-14 00:00:00";63,63;49,91
"2020-08-15 00:00:00";62,78;50,46
"2020-08-16 00:00:00";62,77;50,45
"2020-08-17 00:00:00";63,61;48,69
"2020-08-18 00:00:00";63,63;48,8
"2020-08-19 00:00:00";63,49;48,65
"2020-08-20 00:00:00";63,86;48,82
"2020-08-21 00:00:00";63,95;49,3
"2020-08-22 00:00:00";62,64;50,39
"2020-08-23 00:00:00";62,85;49,54
"2020-08-24 00:00:00";64,03;48,45
"2020-08-25 00:00:00";64,53;48,49
"2020-08-26 00:00:00";64,29;49,02
"2020-08-27 00:00:00";64,83;48,96
"2020-08-28 00:00:00";64,73;49,35
"2020-08-29 00:00:00";63,21;56,59
"2020-08-30 00:00:00";63,9;50,11
"2020-08-31 00:00:00";64,34;48,11
"2020-09-01 00:00:00";64,83;48,07
"2020-09-02 00:00:00";65,54;47,78
"2020-09-03 00:00:00";65,61;48,64
"2020-09-04 00:00:00";65,3;49,35
"2020-09-05 00:00:00";63,97;50,49
"2020-09-06 00:00:00";63,64;50,52
"2020-09-07 00:00:00";65,62;49,65
"2020-09-08 00:00:00";64,95;48,15
"2020-09-09 00:00:00";63,97;55,88
"2020-09-10 00:00:00";65,02;48,33
"2020-09-11 00:00:00";64,04;49,87
"2020-09-12 00:00:00";63,79;49,81
"2020-09-13 00:00:00";63,87;49,82
"2020-09-14 00:00:00";65,18;48,33
"2020-09-15 00:00:00";65,52;48,71
"2020-09-16 00:00:00";65,38;49,16
"2020-09-17 00:00:00";65,41;48,63
"2020-09-18 00:00:00";65,42;49,18
"2020-09-19 00:00:00";64,95;51,22
"2020-09-20 00:00:00";63,68;51,53
"2020-09-21 00:00:00";64,31;48,21
"2020-09-22 00:00:00";65,48;48,93
"2020-09-23 00:00:00";65,73;49,23
"2020-09-26 00:00:00";64,23;53,51
"2020-09-27 00:00:00";62,46;50,55
"2020-09-28 00:00:00";64,43;47,89
"2020-09-29 00:00:00";65,09;48,47
"2020-09-30 00:00:00";65,37;48,6
"2020-10-01 00:00:00";65,54;49,01
"2020-10-02 00:00:00";64,35;49,48
"2020-10-03 00:00:00";64,49;50,9
"2020-10-04 00:00:00";63,31;50,14
"2020-10-05 00:00:00";64,57;47,64
"2020-10-06 00:00:00";64,85;48,32
"2020-10-07 00:00:00";65,09;50,69
"2020-10-08 00:00:00";65,92;48,55
"2020-10-09 00:00:00";65,9;49,68
"2020-10-10 00:00:00";63,72;51,52
"2020-10-11 00:00:00";63,87;50,31
"2020-10-12 00:00:00";62,89;49,48
"2020-10-13 00:00:00";63,6;47,51
"2020-10-14 00:00:00";64,17;50,23
"2020-10-15 00:00:00";64,61;49,29
"2020-10-16 00:00:00";63,33;49,89
"2020-10-17 00:00:00";62,95;48,98
"2020-10-18 00:00:00";61,85;49,02
"2020-10-19 00:00:00";63,19;47,75
"2020-10-20 00:00:00";63,37;47,96
"2020-10-21 00:00:00";64,11;48,66
"2020-10-22 00:00:00";63,13;47,98
"2020-10-23 00:00:00";64,6;49,46
"2020-10-24 00:00:00";63,77;49,3
"2020-10-25 00:00:00";62,1;51,21
"2020-10-26 00:00:00";62,78;46,91
"2020-10-27 00:00:00";63,2;46,66
"2020-10-28 00:00:00";63,51;46,5
"2020-10-29 00:00:00";63,95;47,34
"2020-10-30 00:00:00";64,63;47,31
"2020-10-31 00:00:00";64,21;46,91
"2020-11-01 00:00:00";61,53;45,42
"2020-11-02 00:00:00";63,21;46,47
"2020-11-03 00:00:00";63,23;47,01
"2020-11-04 00:00:00";63,76;48,2
"2020-11-05 00:00:00";64,03;48,08
"2020-11-06 00:00:00";64,71;49,24
"2020-11-07 00:00:00";63,9;52,41
"2020-11-08 00:00:00";61,95;45,81
"2020-11-09 00:00:00";63,7;46,96
"2020-11-10 00:00:00";63,74;47,44
"2020-11-11 00:00:00";64,14;47,31
"2020-11-20 00:00:00";64,88;48,12
"2020-11-21 00:00:00";63,66;46,92
"2020-11-22 00:00:00";62,02;45,8
"2020-11-23 00:00:00";65,08;47,04
"2020-11-24 00:00:00";65,49;47,65
"2020-11-25 00:00:00";65,43;47,88
"2020-11-26 00:00:00";66,12;47,78
"2020-11-27 00:00:00";55,95;48,6
"2020-11-28 00:00:00";65,11;54,62
"2020-11-29 00:00:00";64,03;46,73
"2020-11-30 00:00:00";64,78;47,04
"2020-12-01 00:00:00";65;47,45
"2020-12-02 00:00:00";64,47;47,36
"2020-12-03 00:00:00";64,58;47,77
"2020-12-04 00:00:00";64,87;47,28
"2020-12-05 00:00:00";63,6;45,95
"2020-12-06 00:00:00";62,67;45,24
"2020-12-07 00:00:00";64,78;48,45
"2020-12-08 00:00:00";63,43;45,14
"2020-12-09 00:00:00";64,12;52,91
"2020-12-10 00:00:00";64,64;47,45
"2020-12-11 00:00:00";65,82;47,37
"2020-12-12 00:00:00";64,95;47,14
"2020-12-13 00:00:00";63,34;46,03
"2020-12-14 00:00:00";64,59;46,65
"2020-12-15 00:00:00";64,58;48,04
"2020-12-16 00:00:00";65,45;47,47
"2020-12-17 00:00:00";65,1;47,5
"2020-12-18 00:00:00";65,74;51,7
"2020-12-19 00:00:00";66,01;47,91
"2020-12-20 00:00:00";64,2;46,12
"2020-12-21 00:00:00";64,18;46,77
"2020-12-22 00:00:00";64,97;47,85
"2020-12-23 00:00:00";64,91;48,21
"2020-12-24 00:00:00";62,68;47,76
"2020-12-25 00:00:00";60,21;47,22
"2020-12-26 00:00:00";61,3;45,56
"2020-12-27 00:00:00";61,22;46,83
"2020-12-28 00:00:00";62,71;45,93
"2020-12-29 00:00:00";63,6;46,5
"2020-12-30 00:00:00";63,99;50,2
"2020-12-31 00:00:00";62,43;46,77
"2021-01-01 00:00:00";60,23;48,13
"2021-01-02 00:00:00";62,31;45,74
"2021-01-03 00:00:00";61,96;46,91
"2021-01-04 00:00:00";63,43;45,99
"2021-01-05 00:00:00";63,71;46,99
"2021-01-06 00:00:00";61,96;45,67
"2021-01-07 00:00:00";63,47;49,67
"2021-01-08 00:00:00";63,67;47,12
"2021-01-09 00:00:00";61,44;51,23
"2021-01-10 00:00:00";60,26;49,86
"2021-01-11 00:00:00";62,88;47,2
"2021-01-12 00:00:00";62,9;48,05
"2021-01-13 00:00:00";63,17;47,95
"2021-01-14 00:00:00";63,26;48,28
"2021-01-15 00:00:00";64,56;48,04
"2021-01-16 00:00:00";62,91;47,19
"2021-01-17 00:00:00";60,9;45,8
"2021-01-18 00:00:00";63,34;46,86
"2021-01-19 00:00:00";63,79;47,65
"2021-01-20 00:00:00";63,42;47,49
"2021-01-21 00:00:00";63,59;47,57
"2021-01-22 00:00:00";64,1;48,85
"2021-01-23 00:00:00";62,61;47,6
"2021-01-24 00:00:00";60,96;51,58
"2021-01-25 00:00:00";62,95;50,27
"2021-01-26 00:00:00";63,64;47,07
"2021-01-27 00:00:00";63,55;46,7
"2021-01-28 00:00:00";62,14;47,67
"2021-01-29 00:00:00";65,16;46,45
"2021-01-30 00:00:00";62,75;46,98
"2021-01-31 00:00:00";61,89;52,46
"2021-02-01 00:00:00";62,69;47,08
"2021-02-02 00:00:00";63,24;46,66
"2021-02-03 00:00:00";63,15;47,1
"2021-02-04 00:00:00";63,86;47
"2021-02-06 00:00:00";64,35;47,46
"2021-02-07 00:00:00";62,54;47,87
"2021-02-08 00:00:00";63,06;45,8
"2021-02-09 00:00:00";63,23;50,15
"2021-02-10 00:00:00";63,94;46,75
"2021-02-11 00:00:00";63,97;46,92
"2021-02-12 00:00:00";64,16;47,56
"2021-02-13 00:00:00";64,29;47,05
"2021-02-14 00:00:00";62,43;47,52
"2021-02-15 00:00:00";63,88;46,6
"2021-02-16 00:00:00";64,35;47,84
"2021-02-18 00:00:00";64,51;47,54
"2021-02-19 00:00:00";65,18;47,76
"2021-02-20 00:00:00";65,12;47,19
"2021-02-21 00:00:00";62,69;46,84
"2021-02-22 00:00:00";62,57;48,75
"2021-02-23 00:00:00";64,34;47,67
"2021-02-24 00:00:00";64,44;47,26
"2021-02-25 00:00:00";64,4;47,03
"2021-02-26 00:00:00";65,83;47,03
"2021-02-27 00:00:00";64,69;47,49
"2021-02-28 00:00:00";63,1;46,12
"2021-03-01 00:00:00";64,01;46,75
"2021-03-02 00:00:00";63,87;47,48
"2021-03-03 00:00:00";63,92;47,51
"2021-03-04 00:00:00";63,79;46,99
"2021-03-05 00:00:00";65,14;47,01
"2021-03-06 00:00:00";64,57;46,91
"2021-03-07 00:00:00";62,12;45,44
"2021-03-08 00:00:00";62,27;46,6
"2021-03-09 00:00:00";63,33;46,93
"2021-03-10 00:00:00";63,29;46,7
"2021-03-11 00:00:00";64,17;46,94
"2021-03-12 00:00:00";65,11;47,22
"2021-03-13 00:00:00";64,2;46,6
"2021-03-14 00:00:00";62,25;45,79
"2021-03-15 00:00:00";63,5;46,48
"2021-03-16 00:00:00";63,62;46,7
"2021-03-17 00:00:00";63,7;47,11
"2021-03-18 00:00:00";63,57;46,31
"2021-03-19 00:00:00";63,61;47,35
"2021-03-20 00:00:00";63,51;47,58
"2021-03-21 00:00:00";62,45;45,49
"2021-03-22 00:00:00";63,75;46,27
"2021-03-23 00:00:00";63,82;47,19
"2021-03-24 00:00:00";64,12;47,24
"2021-03-25 00:00:00";64,56;47,13
"2021-03-26 00:00:00";64,97;47,37
"2021-03-27 00:00:00";63,87;47,03
"2021-03-28 00:00:00";62,56;46,47
"2021-03-29 00:00:00";63,8;46,36
"2021-03-30 00:00:00";64,57;46,6
"2021-03-31 00:00:00";64,35;46,75
"2021-04-01 00:00:00";63,42;46,87
"2021-04-02 00:00:00";62;44,56
"2021-04-03 00:00:00";62,47;45,35
"2021-04-04 00:00:00";62,14;44,82
"2021-04-05 00:00:00";62,77;44,07
"2021-04-06 00:00:00";63,73;46,97
"2021-04-07 00:00:00";63,71;47,06
"2021-04-08 00:00:00";64,59;46,88
"2021-04-09 00:00:00";64,6;47,29
"2021-04-10 00:00:00";63,97;46,57
"2021-04-11 00:00:00";62,58;46,23
"2021-04-12 00:00:00";64,03;49,52
"2021-04-13 00:00:00";64,46;47,57
"2021-04-14 00:00:00";64,67;46,85
"2021-04-15 00:00:00";64,66;47,16
"2021-04-16 00:00:00";64,88;47,48
"2021-04-17 00:00:00";64,44;47,51
"2021-04-18 00:00:00";62,97;46,19
"2021-04-19 00:00:00";64,52;46,72
"2021-04-20 00:00:00";64,71;47,23
"2021-04-21 00:00:00";64,07;52,25
"2021-04-22 00:00:00";64,5;47,67
"2021-04-23 00:00:00";65,67;47,76
"2021-04-24 00:00:00";64,69;47,02
"2021-04-25 00:00:00";62,61;45,95
"2021-04-26 00:00:00";63,14;46,16
"2021-04-27 00:00:00";64,66;47,32
"2021-04-28 00:00:00";64,95;47,32
"2021-04-29 00:00:00";65,11;47,68
"2021-04-30 00:00:00";65,82;47,88
"2021-05-01 00:00:00";64,88;47,63
"2021-05-02 00:00:00";63,9;46,6
"2021-05-03 00:00:00";64,49;47,24
"2021-05-04 00:00:00";64,43;47,88
"2021-05-05 00:00:00";65,08;47,74
"2021-05-06 00:00:00";65,42;47,57
"2021-05-07 00:00:00";65,88;48,01
"2021-05-08 00:00:00";64,59;47,88
"2021-05-09 00:00:00";64,95;51,83
"2021-05-10 00:00:00";65,45;48,12
"2021-05-11 00:00:00";65,36;48,33
"2021-05-12 00:00:00";65,29;48,5
"2021-05-13 00:00:00";65,59;47,98
"2021-05-14 00:00:00";66,49;49,05
"2021-05-15 00:00:00";65,68;50,92
"2021-05-16 00:00:00";64,69;50,38
"2021-05-17 00:00:00";65,34;47,99
"2021-05-18 00:00:00";65,46;48,6
"2021-05-19 00:00:00";65,86;48,38
"2021-05-20 00:00:00";66,12;48,25
"2021-05-21 00:00:00";65,86;49,93
"2021-05-22 00:00:00";64,94;51,39
"2021-05-23 00:00:00";63,87;50,54
"2021-05-24 00:00:00";63,98;49,66
"2021-05-25 00:00:00";65,28;47,88
"2021-05-26 00:00:00";65,7;48,41
"2021-05-27 00:00:00";65,71;48,75
"2021-05-28 00:00:00";66,55;49,22
"2021-05-29 00:00:00";64,87;51,17
"2021-05-30 00:00:00";64,93;51,04
"2021-05-31 00:00:00";65,14;48,45
"2021-06-01 00:00:00";65,08;48,24
"2021-06-02 00:00:00";65,94;49,69
"2021-06-03 00:00:00";66,29;49,43
"2021-06-04 00:00:00";66,8;50,12
"2021-06-05 00:00:00";65,44;51,82
"2021-06-06 00:00:00";64,37;51,74
"2021-06-07 00:00:00";65,49;49,14
"2021-06-08 00:00:00";65,64;48,7
"2021-06-09 00:00:00";65,02;49,14
"2021-06-10 00:00:00";65,05;49,07
"2021-06-11 00:00:00";65,46;49,66
"2021-06-12 00:00:00";64,22;51,82
"2021-06-13 00:00:00";63,5;52,05
"2021-06-14 00:00:00";64,66;49,22
"2021-06-15 00:00:00";64,6;49,04
"2021-06-16 00:00:00";65,3;49,63
"2021-06-17 00:00:00";65,76;50,02
"2021-06-18 00:00:00";66,48;50,8
"2021-06-19 00:00:00";65,4;52,59
"2021-06-20 00:00:00";64,75;52,13
"2021-06-21 00:00:00";65,09;50,63
"2021-06-22 00:00:00";66,24;50,26
"2021-06-23 00:00:00";67,62;50,53
"2021-06-24 00:00:00";64,7;59,8
"2021-06-25 00:00:00";65,66;51,24
"2021-06-26 00:00:00";64,69;54,17
"2021-06-27 00:00:00";64,76;53,58
"2021-06-28 00:00:00";66,26;51,17
"2021-06-29 00:00:00";66,53;51,49
"2021-06-30 00:00:00";66,39;51,46
"2021-07-01 00:00:00";66,91;51,38
"2021-07-02 00:00:00";65,94;53,06
"2021-07-03 00:00:00";65,13;54,7
"2021-07-04 00:00:00";64,78;55,03
"2021-07-05 00:00:00";65,69;51,72
"2021-07-06 00:00:00";66,15;51,6
"2021-07-07 00:00:00";66,12;50,77
"2021-07-08 00:00:00";66,35;52,53
"2021-07-09 00:00:00";66,34;52,06
"2021-07-10 00:00:00";65,7;53,73
"2021-07-11 00:00:00";64,55;53,78
"2021-07-12 00:00:00";65,58;51,15
"2021-07-13 00:00:00";65,89;50,79
"2021-07-14 00:00:00";66,02;51,23
"2021-07-15 00:00:00";66,21;50,41
"2021-07-16 00:00:00";65,98;51,13
"2021-07-17 00:00:00";64,73;50,22
"2021-07-18 00:00:00";64,03;49,61
"2021-07-19 00:00:00";65,44;49,32
"2021-07-20 00:00:00";65,81;49,45
"2021-07-21 00:00:00";66,19;49,92
"2021-07-22 00:00:00";65,8;50,04
"2021-07-23 00:00:00";66,11;50,76
"2021-07-24 00:00:00";64,71;50,84
"2021-07-25 00:00:00";64,23;49,85
"2021-07-26 00:00:00";66,38;50,1
"2021-07-27 00:00:00";66,27;51,11
"2021-07-28 00:00:00";66,27;51,16
"2021-07-29 00:00:00";66,07;50,26
"2021-07-30 00:00:00";66,07;51
"2021-07-31 00:00:00";64,77;51,88
"2021-08-01 00:00:00";64,48;50,47
"2021-08-02 00:00:00";65,56;50,46
"2021-08-03 00:00:00";65,39;50,25
"2021-08-04 00:00:00";65,47;50,13
"2021-08-05 00:00:00";65,86;50,15
"2021-08-06 00:00:00";65,68;50,95
"2021-08-07 00:00:00";64,64;50,8
"2021-08-08 00:00:00";63,75;50,24
"2021-08-09 00:00:00";64,58;49,61
"2021-08-10 00:00:00";64,4;50,08
"2021-08-11 00:00:00";64,56;49,68
"2021-08-12 00:00:00";63,92;50,46
"2021-08-13 00:00:00";64,24;50,07
"2021-08-14 00:00:00";62,7;50,48
"2021-08-15 00:00:00";63,2;50,84
"2021-08-16 00:00:00";64,38;50,05
"2021-08-17 00:00:00";64,56;50,74
"2021-08-18 00:00:00";64,46;49,67
"2021-08-19 00:00:00";65,02;49,81
"2021-08-20 00:00:00";64,71;51,29
"2021-08-21 00:00:00";63,83;52,97
"2021-08-22 00:00:00";63,16;52,87
"2021-08-23 00:00:00";64,58;50,8
"2021-08-24 00:00:00";64,63;53,47
"2021-08-25 00:00:00";64,83;50,08
"2021-08-26 00:00:00";64,92;50,32
"2021-08-27 00:00:00";64,85;51,04
"2021-08-28 00:00:00";63,92;51,47
"2021-08-29 00:00:00";63,8;51,85
"2021-08-30 00:00:00";65,38;50
"2021-08-31 00:00:00";66,05;50,4
"2021-09-01 00:00:00";65,69;50,5
"2021-09-02 00:00:00";66,49;51,32
"2021-09-03 00:00:00";65,84;50,67
"2021-09-04 00:00:00";65,37;52,06
"2021-09-05 00:00:00";64,7;52,75
"2021-09-06 00:00:00";66,05;49,96
"2021-09-07 00:00:00";66,06;50,73
"2021-09-08 00:00:00";66,73;50,67
"2021-09-09 00:00:00";66,48;50,85
"2021-09-10 00:00:00";66,06;50,97
"2021-09-11 00:00:00";65,75;53,07
"2021-09-12 00:00:00";64,9;52,61
"2021-09-13 00:00:00";65,85;50,27
"2021-09-14 00:00:00";66,33;50,6
"2021-09-15 00:00:00";66,41;50,94
"2021-09-16 00:00:00";66,44;50,68
"2021-09-17 00:00:00";66,65;51,08
"2021-09-18 00:00:00";65,8;53,54
"2021-09-19 00:00:00";65,19;53,83
"2021-09-20 00:00:00";66,65;49,39
"2021-09-21 00:00:00";65,6;50,78
"2021-09-22 00:00:00";66,26;50,17
"2021-09-23 00:00:00";66,88;50,23
"2021-09-24 00:00:00";66,34;53,66
"2021-09-25 00:00:00";65,55;54,3
"2021-09-26 00:00:00";65,27;53,89
"2021-09-27 00:00:00";65,48;50,37
"2021-09-28 00:00:00";66,17;50,55
"2021-09-29 00:00:00";66,08;50,39
"2021-09-30 00:00:00";65,77;50,16
"2021-10-01 00:00:00";66,89;52,11
"2021-10-02 00:00:00";65,95;53,36
"2021-10-03 00:00:00";64,53;53,76
"2021-10-04 00:00:00";65,4;52,29
"2021-10-05 00:00:00";65,83;50,31
"2021-10-06 00:00:00";66,02;50,27
"2021-10-07 00:00:00";66,08;50,31
"2021-10-08 00:00:00";66,54;51,37
"2021-10-09 00:00:00";65,12;53,96
"2021-10-10 00:00:00";64,45;54,01
"2021-10-11 00:00:00";65,57;51,42
"2021-10-12 00:00:00";64,57;52,86
"2021-10-13 00:00:00";65,32;49,77
"2021-10-14 00:00:00";66,2;50,35
"2021-10-15 00:00:00";66,89;52,55
"2021-10-16 00:00:00";66,04;55,23
"2021-10-17 00:00:00";65,09;55,12
"2021-10-18 00:00:00";65,99;50,48
"2021-10-19 00:00:00";65,11;51
"2021-10-20 00:00:00";66,02;50,23
"2021-10-21 00:00:00";65,84;51,5
"2021-10-22 00:00:00";66,61;52,65
"2021-10-23 00:00:00";65,97;55,32
"2021-10-24 00:00:00";64,87;55,38
"2021-10-25 00:00:00";65,7;50,65
"2021-10-26 00:00:00";65,49;51,21
"2021-10-27 00:00:00";65,32;50,53
"2021-10-28 00:00:00";65,47;51,32
"2021-10-29 00:00:00";63,97;52,49
"2021-10-30 00:00:00";62,26;57,05
"2021-10-31 00:00:00";62,31;54,39
"2021-11-01 00:00:00";62,03;56,4
"2021-11-02 00:00:00";64,63;52,27
"2021-11-03 00:00:00";63,24;52,75
"2021-11-04 00:00:00";60,95;52,19
"2021-11-05 00:00:00";65,35;51,85
"2021-11-06 00:00:00";63,71;55,88
"2021-11-07 00:00:00";62,54;55,68
"2021-11-08 00:00:00";63,65;51,75
"2021-11-09 00:00:00";65,45;51,04
"2021-11-10 00:00:00";65,39;52,4
"2021-11-11 00:00:00";66,08;53,94
"2021-11-12 00:00:00";66,53;53,11